%YAML 1.1
%TAG !u! tag:unity3d.com,2011:
--- !u!1 &4966144711592486862
GameObject:
  m_ObjectHideFlags: 0
  m_CorrespondingSourceObject: {fileID: 0}
  m_PrefabInstance: {fileID: 0}
  m_PrefabAsset: {fileID: 0}
  serializedVersion: 6
  m_Component:
  - component: {fileID: 7540962749101319100}
  - component: {fileID: 4216684574929708302}
  m_Layer: 0
  m_Name: "Sin t\xEDtulo-1"
  m_TagString: Untagged
  m_Icon: {fileID: 0}
  m_NavMeshLayer: 0
  m_StaticEditorFlags: 0
  m_IsActive: 1
--- !u!4 &7540962749101319100
Transform:
  m_ObjectHideFlags: 0
  m_CorrespondingSourceObject: {fileID: 0}
  m_PrefabInstance: {fileID: 0}
  m_PrefabAsset: {fileID: 0}
  m_GameObject: {fileID: 4966144711592486862}
  m_LocalRotation: {x: -0, y: -0, z: -0.007038907, w: 0.99997526}
  m_LocalPosition: {x: 0.008, y: -0.01, z: 0}
  m_LocalScale: {x: 0.028134257, y: 0.10323069, z: 0.13700233}
  m_Children: []
  m_Father: {fileID: 6915196500515186805}
  m_RootOrder: 0
  m_LocalEulerAnglesHint: {x: 0, y: 0, z: -0.80700004}
--- !u!212 &4216684574929708302
SpriteRenderer:
  m_ObjectHideFlags: 0
  m_CorrespondingSourceObject: {fileID: 0}
  m_PrefabInstance: {fileID: 0}
  m_PrefabAsset: {fileID: 0}
  m_GameObject: {fileID: 4966144711592486862}
  m_Enabled: 1
  m_CastShadows: 0
  m_ReceiveShadows: 0
  m_DynamicOccludee: 1
  m_MotionVectors: 1
  m_LightProbeUsage: 1
  m_ReflectionProbeUsage: 1
  m_RenderingLayerMask: 1
  m_RendererPriority: 0
  m_Materials:
  - {fileID: 10754, guid: 0000000000000000f000000000000000, type: 0}
  m_StaticBatchInfo:
    firstSubMesh: 0
    subMeshCount: 0
  m_StaticBatchRoot: {fileID: 0}
  m_ProbeAnchor: {fileID: 0}
  m_LightProbeVolumeOverride: {fileID: 0}
  m_ScaleInLightmap: 1
  m_PreserveUVs: 0
  m_IgnoreNormalsForChartDetection: 0
  m_ImportantGI: 0
  m_StitchLightmapSeams: 0
  m_SelectedEditorRenderState: 0
  m_MinimumChartSize: 4
  m_AutoUVMaxDistance: 0.5
  m_AutoUVMaxAngle: 89
  m_LightmapParameters: {fileID: 0}
  m_SortingLayerID: 0
  m_SortingLayer: 0
  m_SortingOrder: 0
  m_Sprite: {fileID: 21300000, guid: dae8f61d7431c3e42affe413ab9a6bfa, type: 3}
  m_Color: {r: 1, g: 1, b: 1, a: 1}
  m_FlipX: 0
  m_FlipY: 0
  m_DrawMode: 0
  m_Size: {x: 35.079998, y: 11.24}
  m_AdaptiveModeThreshold: 0.5
  m_SpriteTileMode: 0
  m_WasSpriteAssigned: 1
  m_MaskInteraction: 0
  m_SpriteSortPoint: 0
--- !u!1001 &4965161752103771910
PrefabInstance:
  m_ObjectHideFlags: 0
  serializedVersion: 2
  m_Modification:
    m_TransformParent: {fileID: 0}
    m_Modifications:
    - target: {fileID: 5921264116025184149, guid: 513e8ea474015fc40b1acd682e4acb9e,
        type: 3}
      propertyPath: m_Name
      value: PinchoTroll (6) Variant
      objectReference: {fileID: 0}
    - target: {fileID: 1950193718119839603, guid: 513e8ea474015fc40b1acd682e4acb9e,
        type: 3}
      propertyPath: m_LocalPosition.x
      value: -159.96
      objectReference: {fileID: 0}
    - target: {fileID: 1950193718119839603, guid: 513e8ea474015fc40b1acd682e4acb9e,
        type: 3}
      propertyPath: m_LocalPosition.y
      value: 47.03
      objectReference: {fileID: 0}
    - target: {fileID: 1950193718119839603, guid: 513e8ea474015fc40b1acd682e4acb9e,
        type: 3}
      propertyPath: m_LocalPosition.z
      value: 0
      objectReference: {fileID: 0}
    - target: {fileID: 1950193718119839603, guid: 513e8ea474015fc40b1acd682e4acb9e,
        type: 3}
      propertyPath: m_LocalRotation.x
      value: -0
      objectReference: {fileID: 0}
    - target: {fileID: 1950193718119839603, guid: 513e8ea474015fc40b1acd682e4acb9e,
        type: 3}
      propertyPath: m_LocalRotation.y
      value: -0
      objectReference: {fileID: 0}
    - target: {fileID: 1950193718119839603, guid: 513e8ea474015fc40b1acd682e4acb9e,
        type: 3}
      propertyPath: m_LocalRotation.z
      value: -0.24175961
      objectReference: {fileID: 0}
    - target: {fileID: 1950193718119839603, guid: 513e8ea474015fc40b1acd682e4acb9e,
        type: 3}
      propertyPath: m_LocalRotation.w
      value: 0.97033614
      objectReference: {fileID: 0}
    - target: {fileID: 1950193718119839603, guid: 513e8ea474015fc40b1acd682e4acb9e,
        type: 3}
      propertyPath: m_RootOrder
      value: 0
      objectReference: {fileID: 0}
    - target: {fileID: 1950193718119839603, guid: 513e8ea474015fc40b1acd682e4acb9e,
        type: 3}
      propertyPath: m_LocalEulerAnglesHint.x
      value: 0
      objectReference: {fileID: 0}
    - target: {fileID: 1950193718119839603, guid: 513e8ea474015fc40b1acd682e4acb9e,
        type: 3}
      propertyPath: m_LocalEulerAnglesHint.y
      value: 0
      objectReference: {fileID: 0}
    - target: {fileID: 1950193718119839603, guid: 513e8ea474015fc40b1acd682e4acb9e,
        type: 3}
      propertyPath: m_LocalEulerAnglesHint.z
      value: -27.981
      objectReference: {fileID: 0}
    - target: {fileID: 1950193718119839603, guid: 513e8ea474015fc40b1acd682e4acb9e,
        type: 3}
      propertyPath: m_LocalScale.y
      value: 3.1790998
      objectReference: {fileID: 0}
    - target: {fileID: 1950193718119839603, guid: 513e8ea474015fc40b1acd682e4acb9e,
        type: 3}
      propertyPath: m_LocalScale.x
      value: 14.633991
      objectReference: {fileID: 0}
    - target: {fileID: 1950193718119839603, guid: 513e8ea474015fc40b1acd682e4acb9e,
        type: 3}
      propertyPath: m_LocalScale.z
      value: 7.299146
      objectReference: {fileID: 0}
    - target: {fileID: 1536654798838538301, guid: 513e8ea474015fc40b1acd682e4acb9e,
        type: 3}
      propertyPath: m_Enabled
      value: 0
      objectReference: {fileID: 0}
    m_RemovedComponents: []
  m_SourcePrefab: {fileID: 100100000, guid: 513e8ea474015fc40b1acd682e4acb9e, type: 3}
--- !u!4 &6915196500515186805 stripped
Transform:
  m_CorrespondingSourceObject: {fileID: 1950193718119839603, guid: 513e8ea474015fc40b1acd682e4acb9e,
    type: 3}
  m_PrefabInstance: {fileID: 4965161752103771910}
  m_PrefabAsset: {fileID: 0}
